<?xml version="1.0" encoding="UTF-8" standalone="no"?>
<!-- Created with Inkscape (http://www.inkscape.org/) -->

<svg
   xmlns:dc="http://purl.org/dc/elements/1.1/"
   xmlns:cc="http://creativecommons.org/ns#"
   xmlns:rdf="http://www.w3.org/1999/02/22-rdf-syntax-ns#"
   xmlns:svg="http://www.w3.org/2000/svg"
   xmlns="http://www.w3.org/2000/svg"
   xmlns:sodipodi="http://sodipodi.sourceforge.net/DTD/sodipodi-0.dtd"
   xmlns:inkscape="http://www.inkscape.org/namespaces/inkscape"
   width="425.19684"
   height="177.16534"
   id="svg2"
   version="1.1"
   inkscape:version="0.47 r22583"
   sodipodi:docname="metric_space_is_hausdorff.svg">
  <title
     id="title2850"></title>
  <defs
     id="defs4">
    <marker
       inkscape:stockid="Arrow1Mstart"
       orient="auto"
       refY="0"
       refX="0"
       id="Arrow1Mstart"
       style="overflow:visible">
      <path
         id="path3742"
         d="M 0,0 5,-5 -12.5,0 5,5 0,0 z"
         style="fill-rule:evenodd;stroke:#000000;stroke-width:1pt;marker-start:none"
         transform="matrix(0.4,0,0,0.4,4,0)" />
    </marker>
    <marker
       inkscape:stockid="Arrow1Mend"
       orient="auto"
       refY="0"
       refX="0"
       id="Arrow1Mend"
       style="overflow:visible">
      <path
         id="path3745"
         d="M 0,0 5,-5 -12.5,0 5,5 0,0 z"
         style="fill-rule:evenodd;stroke:#000000;stroke-width:1pt;marker-start:none"
         transform="matrix(-0.4,0,0,-0.4,-4,0)" />
    </marker>
    <marker
       inkscape:stockid="Arrow1Mstart"
       orient="auto"
       refY="0"
       refX="0"
       id="Arrow1Mstart-1"
       style="overflow:visible">
      <path
         id="path3742-6"
         d="M 0,0 5,-5 -12.5,0 5,5 0,0 z"
         style="fill-rule:evenodd;stroke:#000000;stroke-width:1pt;marker-start:none"
         transform="matrix(0.4,0,0,0.4,4,0)" />
    </marker>
    <marker
       inkscape:stockid="Arrow1Mend"
       orient="auto"
       refY="0"
       refX="0"
       id="Arrow1Mend-7"
       style="overflow:visible">
      <path
         id="path3745-8"
         d="M 0,0 5,-5 -12.5,0 5,5 0,0 z"
         style="fill-rule:evenodd;stroke:#000000;stroke-width:1pt;marker-start:none"
         transform="matrix(-0.4,0,0,-0.4,-4,0)" />
    </marker>
  </defs>
  <sodipodi:namedview
     id="base"
     pagecolor="#ffffff"
     bordercolor="#666666"
     borderopacity="1.0"
     inkscape:pageopacity="0.0"
     inkscape:pageshadow="2"
     inkscape:zoom="1.0653889"
     inkscape:cx="212.59842"
     inkscape:cy="88.582672"
     inkscape:document-units="px"
     inkscape:current-layer="layer1"
     showgrid="false"
     units="cm"
     inkscape:window-width="901"
     inkscape:window-height="732"
     inkscape:window-x="264"
     inkscape:window-y="71"
     inkscape:window-maximized="0" />
  <metadata
     id="metadata7">
    <rdf:RDF>
      <cc:Work
         rdf:about="">
        <dc:format>image/svg+xml</dc:format>
        <dc:type
           rdf:resource="http://purl.org/dc/dcmitype/StillImage" />
        <dc:title></dc:title>
        <cc:license
           rdf:resource="http://creativecommons.org/licenses/by-sa/3.0/" />
        <dc:description></dc:description>
      </cc:Work>
      <cc:License
         rdf:about="http://creativecommons.org/licenses/by-sa/3.0/">
        <cc:permits
           rdf:resource="http://creativecommons.org/ns#Reproduction" />
        <cc:permits
           rdf:resource="http://creativecommons.org/ns#Distribution" />
        <cc:requires
           rdf:resource="http://creativecommons.org/ns#Notice" />
        <cc:requires
           rdf:resource="http://creativecommons.org/ns#Attribution" />
        <cc:permits
           rdf:resource="http://creativecommons.org/ns#DerivativeWorks" />
        <cc:requires
           rdf:resource="http://creativecommons.org/ns#ShareAlike" />
      </cc:License>
    </rdf:RDF>
  </metadata>
  <g
     inkscape:label="Layer 1"
     inkscape:groupmode="layer"
     id="layer1"
     transform="translate(0,-875.19695)">
    <path
       sodipodi:type="arc"
       style="fill:none;stroke:#000000;stroke-width:0.86390436;stroke-miterlimit:4;stroke-opacity:1;stroke-dasharray:1.72780866, 3.45561731;stroke-dashoffset:0;marker-start:none"
       id="path4850-2"
       sodipodi:cx="63.273338"
       sodipodi:cy="90.39048"
       sodipodi:rx="30.371202"
       sodipodi:ry="30.371202"
       d="m 93.644541,90.39048 a 30.371202,30.371202 0 1 1 -60.742405,0 30.371202,30.371202 0 1 1 60.742405,0 z"
       transform="matrix(2.3324342,0,0,2.3324342,157.48946,752.94978)" />
    <path
       sodipodi:type="arc"
       style="fill:#000000"
       id="path4852-5"
       sodipodi:cx="53.330383"
       sodipodi:cy="36.336975"
       sodipodi:rx="3.0732763"
       sodipodi:ry="3.0732763"
       d="m 56.40366,36.336975 a 3.0732763,3.0732763 0 1 1 -6.146553,0 3.0732763,3.0732763 0 1 1 6.146553,0 z"
       transform="matrix(2.1275904,0,0,2.1275904,191.60515,886.46943)" />
    <text
       xml:space="preserve"
       style="font-size:20px;font-style:italic;font-variant:normal;font-weight:bold;font-stretch:normal;fill:#000000;fill-opacity:1;stroke:none;font-family:Chancery Uralic;-inkscape-font-specification:Chancery Uralic Bold Italic"
       x="312.16443"
       y="979.83093"
       id="text4189-7"><tspan
         sodipodi:role="line"
         id="tspan4191-4"
         x="312.16443"
         y="979.83093">y</tspan></text>
    <path
       style="fill:none;stroke:#000000;stroke-width:1px;stroke-linecap:butt;stroke-linejoin:miter;stroke-opacity:1;marker-start:url(#Arrow1Mstart);marker-end:url(#Arrow1Mend)"
       d="m 312.07515,958.03056 41.29947,-39.89154"
       id="path5041" />
    <path
       sodipodi:type="arc"
       style="fill:none;stroke:#000000;stroke-width:0.86390436;stroke-miterlimit:4;stroke-opacity:1;stroke-dasharray:1.72780866, 3.45561731;stroke-dashoffset:0;marker-start:none"
       id="path4850-2-9"
       sodipodi:cx="63.273338"
       sodipodi:cy="90.39048"
       sodipodi:rx="30.371202"
       sodipodi:ry="30.371202"
       d="m 93.644541,90.39048 a 30.371202,30.371202 0 1 1 -60.742405,0 30.371202,30.371202 0 1 1 60.742405,0 z"
       transform="matrix(2.3324342,0,0,2.3324342,-27.454423,752.94978)" />
    <path
       sodipodi:type="arc"
       style="fill:#000000"
       id="path4852-5-6"
       sodipodi:cx="53.330383"
       sodipodi:cy="36.336975"
       sodipodi:rx="3.0732763"
       sodipodi:ry="3.0732763"
       d="m 56.40366,36.336975 a 3.0732763,3.0732763 0 1 1 -6.146553,0 3.0732763,3.0732763 0 1 1 6.146553,0 z"
       transform="matrix(2.1275904,0,0,2.1275904,6.6612669,886.46943)" />
    <text
       xml:space="preserve"
       style="font-size:20px;font-style:italic;font-variant:normal;font-weight:bold;font-stretch:normal;fill:#000000;fill-opacity:1;stroke:none;font-family:Chancery Uralic;-inkscape-font-specification:Chancery Uralic Bold Italic"
       x="102.81631"
       y="983.58545"
       id="text4189-7-8"><tspan
         sodipodi:role="line"
         id="tspan4191-4-0"
         x="102.81631"
         y="983.58545">x</tspan></text>
    <path
       style="fill:none;stroke:#000000;stroke-width:1px;stroke-linecap:butt;stroke-linejoin:miter;stroke-opacity:1;marker-start:url(#Arrow1Mstart);marker-end:url(#Arrow1Mend)"
       d="m 127.63547,957.91323 41.29946,-39.89154"
       id="path5041-8" />
    <path
       style="fill:none;stroke:#000000;stroke-width:1px;stroke-linecap:butt;stroke-linejoin:miter;stroke-opacity:1;marker-start:url(#Arrow1Mstart-1);marker-end:url(#Arrow1Mend-7)"
       d="m 129.51272,963.77962 165.66719,0"
       id="path5498" />
    <text
       xml:space="preserve"
       style="font-size:20.44481087px;font-style:normal;font-variant:normal;font-weight:normal;font-stretch:normal;fill:#000000;fill-opacity:1;stroke:none;font-family:Symbol;-inkscape-font-specification:Symbol"
       x="139.92178"
       y="931.80652"
       id="text4189-6"><tspan
         sodipodi:role="line"
         id="tspan4191-8"
         x="139.92178"
         y="931.80652">𝜀</tspan></text>
    <text
       xml:space="preserve"
       style="font-size:20.44481087px;font-style:normal;font-variant:normal;font-weight:normal;font-stretch:normal;fill:#000000;fill-opacity:1;stroke:none;font-family:Symbol;-inkscape-font-specification:Symbol"
       x="326.00406"
       y="931.46185"
       id="text4189-6-3"><tspan
         sodipodi:role="line"
         id="tspan4191-8-5"
         x="326.00406"
         y="931.46185">𝜀</tspan></text>
  </g>
</svg>
